{
    "questions": [
        {
            "questionId": 1,
            "questionPoints": 3,
            "questionPicturePath": "https://image.shutterstock.com/image-illustration/spectral-clouds-escape-reality-series-600w-1707615538.jpg",
            "questionTitle": "simply dummy text of the printing and typesetting industry. Lorem Ipsum has been the industry's standard dummy text ever since the 1500s, asdhuiasd aijsdjoasidjio jaiosd joisa joidasjodjosijoisd dsadadasdasgas adasdasdas adsadasdasdsa gasdas",
            "questionDescription": "Teszt leiras teszt kerdeshez #1",
            "answers": [
                {
                    "answersId": 1,
                    "correct": false,
                    "answerText": "Mauris porttitor elit mi, at vehicula enim consequat sit amet. Quisque dapibus, augue et blandit tempor,"
                },
                {
                    "answersId": 2,
                    "correct": false,
                    "answerText": "In tincidunt suscipit orci id ornare. Quisque vel erat venenatis mi suscipit volutpat sed ac nulla. Proin consequat felis et nisl suscipit, eu efficitur enim consectetur. "
                },
                {
                    "answersId": 3,
                    "correct": true,
                    "answerText": "HELYES Pellentesque rhoncus, justo quis laoreet finibus, urna nunc fermentum mauris, id tristique enim purus at sem. Cras et odio porttitor, dapibus nunc a, dictum lacus. s"
                }
            ]
        },
        {
            "questionId": 2,
            "questionPoints": 3,
            "questionPicturePath": "https://image.shutterstock.com/image-photo/abstract-nature-pebbles-background-blue-600w-428477185.jpg",
            "questionTitle": "simply dummy text of the printing and typesetting industry. Lorem Ipsum has been the industry's standard dummy text ever since the 1500s, when an unknown printer took a galley of type and scrambled it to make a type specimen book. standard dummy text ever since the 1500s, when an unknown printer took a galley of type and scrambled it to make a type specimen book.  when an unknown printer took a galley of type and scrambled it to make a type specimen book. standard dummy text ever since the 1500s, simply dummy text of the printing and typesetting industry. Lorem Ipsum has been the industry's ",
            "questionDescription": "Teszt leiras teszt kerdeshez #2",
            "answers": [
                {
                    "answersId": 1,
                    "correct": false,
                    "answerText": "Rovid valasz 1"
                },
                {
                    "answersId": 2,
                    "correct": true,
                    "answerText": "HELYES Rovid valasz 2"
                },
                {
                    "answersId": 3,
                    "correct": false,
                    "answerText": "Rovid valasz 3"
                }
            ]
        },
        {
            "questionId": 3,
            "questionPoints": 4,
            "questionPicturePath": "",
            "questionTitle": "Hosszú válaszok csak",
            "questionDescription": "Teszt leiras teszt kerdeshez #3",
            "answers": [
                {
                    "answersId": 1,
                    "correct": true,
                    "answerText": "HELYES Sed ornare, urna vel congue lacinia, nisl ligula finibus est, vitae faucibus ipsum nisl eget ex. Suspendisse et eleifend dolor. Phasellus pulvinar eros eget malesuada vehicula, libero eros mollis justo, ut lobortis ipsum tellus at leo. Ut a mauris metus. Sed ac elit nec tortor malesuada vulputate"
                },
                {
                    "answersId": 2,
                    "correct": false,
                    "answerText": "Vivamus accumsan risus augue, vitae mattis neque porta nec. Aenean venenatis dapibus ligula non egestas. Aenean venenatis, augue finibus scelerisque pellentesque, elit velit vulputate arcu, id malesuada eros odio eu mauris."
                },
                {
                    "answersId": 3,
                    "correct": false,
                    "answerText": "Maecenas dui lorem, molestie ac augue non, laoreet sagittis est. Sed sit amet dignissim ex. Maecenas blandit lacus vel libero eleifend, ut mollis massa tempus. Cras feugiat rhoncus rhoncus."
                }
            ]
        },
        {
            "questionId": 4,
            "questionPoints": 4,
            "questionPicturePath": "https://image.shutterstock.com/image-illustration/spectral-clouds-escape-reality-series-600w-1707615538.jpg",
            "questionTitle": "Teszt kerdes 4",
            "questionDescription": "Itt minden okes #4",
            "answers": [
                {
                    "answersId": 1,
                    "correct": true,
                    "answerText": "HELYES Test 7"
                },
                {
                    "answersId": 2,
                    "correct": false,
                    "answerText": "Test 8"
                },
                {
                    "answersId": 3,
                    "correct": false,
                    "answerText": "Test 9"
                }
            ]
        }
    ]
}